<?xml version="1.0" encoding="utf-8"?>
<!-- Generator: Adobe Illustrator 20.0.0, SVG Export Plug-In . SVG Version: 6.00 Build 0)  -->
<svg version="1.1" id="Calque_1" xmlns="http://www.w3.org/2000/svg" xmlns:xlink="http://www.w3.org/1999/xlink" x="0px" y="0px"
	 viewBox="0 0 44.8 68.1" style="enable-background:new 0 0 44.8 68.1;" xml:space="preserve">
<style type="text/css">
	.st0{stroke:#FFFFFF;stroke-miterlimit:10;}
</style>
<g>
	<path class="st0" d="M11.5,47.7v14.6c0,1.6,1.6,3,3.5,3h15.7c1.9,0,3.5-1.3,3.5-3V47.3"/>
	<path class="st0" d="M15,42.6"/>
	<path class="st0" d="M34.2,47.9c6-4.4,10-12.4,10-20.9c0-13.5-9.5-26.4-22-26.4S0.5,12.9,0.5,26.4c0,9.6,3.5,17.5,11,21.4H34.2z"/>
	<path class="st0" d="M30.7,42.6"/>
</g>
<path class="st0" d="M14.3,52.5"/>
<path class="st0" d="M29.9,65.3c-6.8,3.8-15,0-15,0"/>
<path class="st0" d="M8.4,63.6"/>
<line class="st0" x1="14.3" y1="52.1" x2="29.4" y2="52.1"/>
<line class="st0" x1="14.3" y1="57.3" x2="29.4" y2="57.3"/>
<polyline class="st0" points="16.9,47.5 16.9,25.4 13.8,23.2 28.6,23.2 25.5,25.4 25.5,47.5 "/>
<path class="st0" d="M19.8,47.5"/>
<path class="st0" d="M27.5,47.5"/>
</svg>
